   SIDs         List of problems
----------      ----------------
*********:	3 6 9 13 18 	<-- Use this list if your SID is missing.
*****0104:	1 8 9 13 16 
*****0197:	1 2 6 12 14 
*****0344:	2 6 8 10 15 
*****0499:	1 3 6 10 15 
*****0759:	3 7 9 10 16 
*****1054:	1 3 6 16 18 
*****1140:	3 6 9 11 17 
*****1175:	2 5 6 10 13 
*****1216:	3 5 7 12 17 
*****1360:	1 5 8 10 14 
*****1387:	3 5 8 11 17 
*****1502:	4 6 8 15 18 
*****1578:	1 3 9 10 14 
*****1785:	4 6 9 13 18 
*****1835:	1 3 6 10 12 
*****2093:	2 3 8 12 16 
*****2572:	1 3 8 11 16 
*****2885:	2 7 8 13 15 
*****3689:	3 6 7 13 18 
*****4096:	3 5 8 11 17 
*****4821:	1 7 8 14 17 
*****5413:	2 3 9 16 18 
*****5426:	5 6 9 15 18 
*****6179:	2 4 7 12 14 
*****6469:	1 7 8 14 16 
*****6687:	2 7 8 15 18 
*****6766:	2 4 5 14 18 
*****6835:	2 5 6 12 16 
*****7180:	2 4 9 17 18 
*****7423:	2 8 9 12 18 
*****7451:	6 7 8 15 18 
*****7527:	5 7 9 10 14 
*****7608:	1 4 6 11 18 
*****7804:	5 7 8 10 13 
*****7987:	1 4 7 10 17 
*****8006:	3 5 6 14 18 
*****8034:	1 2 9 11 15 
*****8562:	1 5 9 12 13 
*****9746:	3 5 6 10 11 
*****9761:	1 2 8 13 15 
